^C:\USERS\MERCÈ\DROPBOX\CARPETA DE TREBALL\PROJECTE OPENCV C++\CONSOLEAPPLICATION1\CONSOLEAPPLICATION1\STDAFX.CPP
C:\USERS\MERCè\DROPBOX\CARPETA DE TREBALL\PROJECTE OPENCV C++\CONSOLEAPPLICATION1\CONSOLEAPPLICATION1\X64\DEBUG\CONSOLEAPPLICATION1.PCH
C:\USERS\MERCè\DROPBOX\CARPETA DE TREBALL\PROJECTE OPENCV C++\CONSOLEAPPLICATION1\CONSOLEAPPLICATION1\X64\DEBUG\VC120.PDB
C:\USERS\MERCè\DROPBOX\CARPETA DE TREBALL\PROJECTE OPENCV C++\CONSOLEAPPLICATION1\CONSOLEAPPLICATION1\X64\DEBUG\VC120.IDB
C:\USERS\MERCè\DROPBOX\CARPETA DE TREBALL\PROJECTE OPENCV C++\CONSOLEAPPLICATION1\CONSOLEAPPLICATION1\X64\DEBUG\STDAFX.OBJ
^C:\USERS\MERCÈ\DROPBOX\CARPETA DE TREBALL\PROJECTE OPENCV C++\CONSOLEAPPLICATION1\CONSOLEAPPLICATION1\CONSOLEAPPLICATION1.CPP
C:\USERS\MERCè\DROPBOX\CARPETA DE TREBALL\PROJECTE OPENCV C++\CONSOLEAPPLICATION1\CONSOLEAPPLICATION1\X64\DEBUG\VC120.PDB
C:\USERS\MERCè\DROPBOX\CARPETA DE TREBALL\PROJECTE OPENCV C++\CONSOLEAPPLICATION1\CONSOLEAPPLICATION1\X64\DEBUG\VC120.IDB
C:\USERS\MERCè\DROPBOX\CARPETA DE TREBALL\PROJECTE OPENCV C++\CONSOLEAPPLICATION1\CONSOLEAPPLICATION1\X64\DEBUG\CONSOLEAPPLICATION1.OBJ
