^C:\USERS\MERCÈ\DROPBOX\CARPETA DE TREBALL\PROJECTE OPENCV C++\CONSOLEAPPLICATION1\CONSOLEAPPLICATION1\STDAFX.CPP
/c /IC:\opencv\build\\include /ZI /nologo /W3 /WX- /sdl /Od /Oy- /D WIN32 /D _DEBUG /D _CONSOLE /D _LIB /D _UNICODE /D UNICODE /Gm /EHsc /RTC1 /MDd /GS /fp:precise /Zc:wchar_t /Zc:forScope /Yc"stdafx.h" /Fp"DEBUG\CONSOLEAPPLICATION1.PCH" /Fo"DEBUG\\" /Fd"DEBUG\VC120.PDB" /Gd /TP /analyze- C:\USERS\MERCÈ\DROPBOX\CARPETA DE TREBALL\PROJECTE OPENCV C++\CONSOLEAPPLICATION1\CONSOLEAPPLICATION1\STDAFX.CPP
^C:\USERS\MERCÈ\DROPBOX\CARPETA DE TREBALL\PROJECTE OPENCV C++\CONSOLEAPPLICATION1\CONSOLEAPPLICATION1\CONSOLEAPPLICATION1.CPP
/c /IC:\opencv\build\\include /ZI /nologo /W3 /WX- /sdl /Od /Oy- /D WIN32 /D _DEBUG /D _CONSOLE /D _LIB /D _UNICODE /D UNICODE /Gm /EHsc /RTC1 /MDd /GS /fp:precise /Zc:wchar_t /Zc:forScope /Yu"stdafx.h" /Fp"DEBUG\CONSOLEAPPLICATION1.PCH" /Fo"DEBUG\\" /Fd"DEBUG\VC120.PDB" /Gd /TP /analyze- C:\USERS\MERCÈ\DROPBOX\CARPETA DE TREBALL\PROJECTE OPENCV C++\CONSOLEAPPLICATION1\CONSOLEAPPLICATION1\CONSOLEAPPLICATION1.CPP
